Introduction to R and the tidyverse
…
Note that since the FULLIDNO are not accepted variable names (they start with a number), we need to surround them with `` for R to treat them as column names. This was also why read.table appended an X to those names before.

Pivot wide to long format

We want to combine geno and meta matching their FULLIDNO. However, FULLIDNO are column names in geno while they are in 1 single variable in meta. If we transpose geno, we will have a FULLIDNO variable to match with meta.

There are several ways to do this including a simple transpose with t(). However, this function does not play well with column vs row names and get mess up your data. So, well use the tidyverse!

First, we convert the geno table from wide format (1 row per SNP) to long format (1 column per variable). Here, we specify the geno data frame, the variables we want to collapse (written as all but snpID with -snpID), and then the names we want to give the new columns.

Pivoting can be tricky so it is best to always look at your table before and after!

geno

## # A tibble: 270 x 104
##    snpID `84165-1-06` `84182-1-02` `84183-1-02` `84183-1-05` `84186-1-03`
##    <chr> <chr>        <chr>        <chr>        <chr>        <chr>       
##  1 JHU_ 0/1          0/0          0/0          0/0          0/0         
##  2 JHU_ 0/0          0/0          0/1          0/1          0/1         
##  3 rs50 0/0          1/1          0/0          0/0          0/0         
##  4 JHU_ 0/0          0/0          0/0          0/0          0/0         
##  5 JHU_ 0/1          0/0          0/0          0/0          0/0         
##  6 rs28 0/0          0/0          0/0          0/0          0/0         
##  7 JHU_ 0/0          0/0          0/0          0/0          0/0         
##  8 rs11 0/1          0/1          0/0          0/0          0/0         
##  9 rs17 0/1          0/0          0/1          0/1          0/0         
## 10 rs77 0/0          0/1          0/1          0/0          0/0         
## #  with 260 more rows, and 98 more variables: `84186-1-04` <chr>,
## #   `84218-1-02` <chr>, `84218-1-05` <chr>, `84218-1-06` <chr>,
## #   `84222-1-03` <chr>, `84222-1-17` <chr>, `84222-1-18` <chr>,
## #   `84222-1-19` <chr>, `84222-1-20` <chr>, `84222-1-23` <chr>,
## #   `84224-1-13` <chr>, `84224-1-14` <chr>, `84237-1-02` <chr>,
## #   `84275-1-03` <chr>, `84275-1-04` <chr>, `84299-1-04` <chr>,
## #   `84299-1-06` <chr>, `84302-1-02` <chr>, `84302-1-03` <chr>,
## #   `84317-1-03` <chr>, `84319-1-02` <chr>, `84319-1-03` <chr>,
## #   `84329-1-08` <chr>, `84334-1-03` <chr>, `84348-1-02` <chr>,
…
geno <- pivot_longer(geno,
                -snpID, names_to="FULLIDNO", values_to="genotype")

geno

## # A tibble: 27,810 x 3
##    snpID           FULLIDNO   genotype
##    <chr>           <chr>      <chr>   
##  1 JHU_7.151253265 84165-1-06 0/1     
##  2 JHU_7.151253265 84182-1-02 0/0     
##  3 JHU_7.151253265 84183-1-02 0/0     
##  4 JHU_7.151253265 84183-1-05 0/0     
##  5 JHU_7.151253265 84186-1-03 0/0     
##  6 JHU_7.151253265 84186-1-04 0/0     
##  7 JHU_7.151253265 84218-1-02 0/0     
##  8 JHU_7.151253265 84218-1-05 0/0     
##  9 JHU_7.151253265 84218-1-06 0/0     
## 10 JHU_7.151253265 84222-1-03 0/0     
## #  with 27,800 more rows
…
Select our cleaned variables.

geno <- select(geno, snpID, FULLIDNO, geno.num)

Convert to wide format.

geno <- pivot_wider(geno, 
                     names_from = "snpID", values_from = "geno.num")

And so we have

geno

## # A tibble: 103 x 271
##    FULLIDNO JHU_7.151253265 JHU_7.151254994 rs5017429 JHU_7.151257035
##    <chr>              <dbl>           <dbl>     <dbl>           <dbl>
##  1 84165-1               1               0         0               0
##  2 84182-1               0               0         2               0
##  3 84183-1               0               1         0               0
##  4 84183-1               0               1         0               0
##  5 84186-1               0               1         0               0
##  6 84186-1               0               0         1               0
##  7 84218-1               0               0         1               0
##  8 84218-1               0               0         2               0
##  9 84218-1               0               0         1               0
## 10 84222-1               0               0         1               0
## #  with 93 more rows, and 266 more variables: JHU_7.151257523 <dbl>,
## #   rs28763998 <dbl>, JHU_7.151258416 <dbl>, rs11982878 <dbl>,
## #   rs17173197 <dbl>, rs77133357 <dbl>, rs7791529 <dbl>, rs4726052 <dbl>,
## #   rs75705628 <dbl>, rs1029946 <dbl>, JHU_7.151277901 <dbl>, rs6953318 <dbl>,
## #   JHU_7.151281262 <dbl>, rs2538039 <dbl>, rs12164128 <dbl>, rs4726058 <dbl>,
## #   rs56189422 <dbl>, rs138640368 <dbl>, rs3789809 <dbl>, rs2538036 <dbl>,
## #   JHU_7.151291496 <dbl>, JHU_7.151300192 <dbl>, JHU_7.151301751 <dbl>,
## #   JHU_7.151304363 <dbl>, rs6464150 <dbl>, JHU_7.151306394 <dbl>,
## #   rs2374229 <dbl>, rs2538034 <dbl>, rs4726070 <dbl>, rs6964957 <dbl>,
…
