RNA-seq of AM and MDM infected with TB
…
Summary modules

AM_mods.net %>% 
  count(module.char)

## # A tibble: 24 x 2
##    module.char     n
##    <chr>       <int>
##  1 00              4
##  2 01            621
##  3 02            485
##  4 03            452
##  5 04            298
##  6 05            271
##  7 06            270
##  8 07            213
##  9 08            187
## 10 09            182
## #  with 14 more rows
…
